    <svg version="1.1" xmlns="http://www.w3.org/2000/svg" xmlns:xlink="http://www.w3.org/1999/xlink" x="0px" y="0px" viewBox="0 0 48 36" style="enable-background:new 0 0 48 36;" xml:space="preserve">
    <g id="height">
      <g>
        <ellipse cx="18.1" cy="11.9" rx="5" ry="1.5"></ellipse>
        <path d="M47.2,14.3c0-2.6-2.9-4.9-8.3-6.6c-4.4-1.4-9.1-2-13.7-2.3c-1.4-0.1-2.8-0.1-4.2-0.1c-3.7,0-7.3,0-10.9,0.7
          c-3,0.6-7,1.3-8.6,4.3c-0.6,1-0.7,2.3-0.6,3.4c0.1,0.9,0,1.9,0,2.8c0,2,0,4,0,6c0,0.4,0,0.9,0,1.3c0,4.5,8.7,6.9,17.3,6.9
          s17.3-2.4,17.3-6.9V12.3c0,0,0,0,0-0.1c0,0,0-0.1,0-0.1c0-1-0.5-2-1.3-2.8c1.4,0.3,2.7,0.6,3.9,1c5,1.6,6.3,3.3,6.3,4
          c0,0.6-1.3,1.9-5,3c-0.6,0.2-1,0.7-1,1.4v9.6c0,0.8,0.6,1.4,1.4,1.4c0.1,0,0.3,0,0.4-0.1c0.1,0,0.2,0,0.3-0.1
          c4.4-1.2,6.8-3.2,6.8-5.6v-9.1c0-0.1,0-0.1,0-0.2C47.2,14.5,47.2,14.4,47.2,14.3z M32.7,23.9c0,0.6-1.1,1.6-3.6,2.5v-3.2
          c0-0.5-0.4-0.9-0.9-0.9s-0.9,0.4-0.9,0.9v3.7c0,0,0,0,0,0.1c-1,0.3-2.1,0.5-3.3,0.6v-2.1c0-0.5-0.4-0.9-0.9-0.9s-0.9,0.4-0.9,0.9
          v2.3c-1.1,0.1-2.2,0.2-3.3,0.2v-3.4c0-0.5-0.4-0.9-0.9-0.9s-0.9,0.4-0.9,0.9v3.4c-1.1,0-2.2-0.1-3.3-0.2v-2.2
          c0-0.5-0.4-0.9-0.9-0.9s-0.9,0.4-0.9,0.9v2c-1.2-0.2-2.3-0.4-3.3-0.7v-3.6c0-0.5-0.4-0.9-0.9-0.9c-0.5,0-0.9,0.4-0.9,0.9v3
          c-2-0.8-3-1.7-3-2.3v-7.8C6.9,18,12.5,19,18.1,19c5.6,0,11.3-1,14.5-2.9V23.9z M28.9,14.7c-2.9,1-6.7,1.5-10.8,1.5
          s-7.9-0.5-10.8-1.5c-2.6-0.9-3.7-1.9-3.7-2.5s1.2-1.7,3.7-2.5c2.9-1,6.7-1.5,10.8-1.5s7.9,0.5,10.8,1.5c2.6,0.9,3.7,1.9,3.7,2.5
          S31.5,13.8,28.9,14.7z"></path>
      </g>
    </g>
    </svg>